Karyna S. – Analysis of the 2025 WNBA Season
…
Data Exploration

Preliminary data exploration

Code

# Points and plays per person
wnba %>%
  filter(scoring_play == TRUE) %>%
  group_by(athlete_id_1) %>%
  summarise(total_points = sum(score_value, na.rm = TRUE),
            total_plays = n()) %>%
  arrange(desc(total_points))

# A tibble: 176 × 3
   athlete_id_1 total_points total_plays
          <int>        <int>       <int>
 1      3149391         1263         780
 2      3142191         1100         577
 3      4065870          972         525
 4      3917450          906         508
 5         1068          870         451
 6      3065570          855         487
 7      3058901          839         464
 8      4281929          826         470
 9      2566106          811         472
10      2529140          791         468
# ℹ 166 more rows
…
Code

player_stats <- wnba_player_box %>%
  group_by(athlete_display_name) %>%
  summarize(
    avg_ppg = mean(points, na.rm = TRUE),
    avg_blocks = mean(blocks, na.rm = TRUE),
    avg_rebounds = mean((offensive_rebounds + defensive_rebounds), na.rm = TRUE),
    avg_assists = mean(assists, na.rm = TRUE),
    avg_steals = mean(steals, na.rm = TRUE),
    ) 
player_stats

# A tibble: 185 × 6
   athlete_display_name avg_ppg avg_blocks avg_rebounds avg_assists avg_steals
   <chr>                  <dbl>      <dbl>        <dbl>       <dbl>      <dbl>
 1 A'ja Wilson            23.8       2.30          9.98       3.09       1.70 
 2 Aaliyah Edwards         5.39      0.389         3.67       0.556      0.639
 3 Aaliyah Nye             3.38      0.18          1.34       0.48       0.26 
 4 Aari McDonald           9.90      0.238         2.38       4.52       1.24 
 5 Aerial Powers           5         0.111         2.83       1.22       0.611
 6 Ajae Petty              0         0             0.5        0          0    
 7 Alanna Smith            9.29      1.84          5.10       2.76       1.27 
 8 Alexis Prince           2         0             8          1          0    
 9 Alissa Pili             2.15      0.05          0.95       0.15       0.1  
10 Aliyah Boston          14.5       0.833         8.69       3.78       1.07 
# ℹ 175 more rows
…
    sd_blocks = scale(avg_blocks),
    sd_rebounds = scale(avg_rebounds),
    sd_assists = scale(avg_assists),
    sd_steals = scale(avg_steals)
  ) %>%
  rowwise() %>%
  mutate(
    overall_impact = mean(c(sd_ppg, sd_blocks, sd_rebounds, sd_assists, sd_steals))
  ) %>%
  ungroup() %>%
  arrange(desc(overall_impact)) %>%
  select(c(athlete_display_name, overall_impact))
player_sd_stats

# A tibble: 185 × 2
   athlete_display_name overall_impact
   <chr>                         <dbl>
 1 A'ja Wilson                    2.80
 2 Alyssa Thomas                  2.07
 3 Napheesa Collier               1.99
 4 Caitlin Clark                  1.83
 5 Angel Reese                    1.77
 6 Breanna Stewart                1.61
 7 Dearica Hamby                  1.44
 8 Aliyah Boston                  1.40
 9 Rhyne Howard                   1.38
10 Alanna Smith                   1.36
# ℹ 175 more rows
…
