Appendix C — Cate S. – Analysis of the 2025 WNBA Season
…
Alyssa Thomas
Mercury
215000
Protected Veteran

Code

player_salary <- top_players %>%
  left_join(salary_df, by = join_by(athlete_display_name == name, team_name == team_name)) 

player_salary %>%
  select(athlete_display_name, team_name, salary, contract) 

# A tibble: 232 × 4
# Groups:   athlete_display_name [185]
   athlete_display_name team_name salary contract         
   <chr>                <chr>      <dbl> <fct>            
 1 A'ja Wilson          Aces      200000 Protected Veteran
 2 Aaliyah Edwards      Mystics       NA <NA>             
 3 Aaliyah Edwards      Sun        74909 Unprotected      
 4 Aaliyah Nye          Aces       69267 Unprotected      
 5 Aari McDonald        Fever      52333 Unprotected      
 6 Aari McDonald        Fever       6459 Hardship Contract
 7 Aerial Powers        Fever       3975 Hardship Contract
 8 Aerial Powers        Fever       9274 7-Day Contract   
 9 Aerial Powers        Valkyries  11924 Waived           
10 Ajae Petty           Wings       1250 Hardship Contract
# ℹ 222 more rows
…
# determine best (highest accuracy) parameter
best_param <- multiple_models %>%   
  select_best(metric = "accuracy")

# build final parsimonious model
final_model <- model_wf %>% 
  finalize_workflow(parsimonious_param) %>% 
  fit(data = lasso_training)

# print coefficients
final_model %>%
  tidy() %>%
  filter(estimate != 0)

# A tibble: 22 × 3
   term                         estimate penalty
   <chr>                           <dbl>   <dbl>
 1 (Intercept)                   -2.38    0.0268
 2 assists                        0.0592  0.0268
 3 field_goal_pct                 0.0365  0.0268
 4 field_goals_made               0.327   0.0268
 5 free_throws_made               0.181   0.0268
 6 three_point_field_goals_made   0.155   0.0268
 7 opponent_assists              -0.0197  0.0268
 8 opponent_field_goal_pct       -0.0253  0.0268
 9 opponent_field_goals_made     -0.285   0.0268
10 opponent_free_throws_made     -0.187   0.0268
# ℹ 12 more rows
…
Code

# Numerical summaries: Measure information captured by each PC
pca_results %>% 
  tidy(matrix = "eigenvalues")

# A tibble: 55 × 4
      PC std.dev percent cumulative
   <dbl>   <dbl>   <dbl>      <dbl>
 1     1    3.57  0.232       0.232
 2     2    1.97  0.0705      0.302
 3     3    1.90  0.0656      0.368
 4     4    1.58  0.0455      0.413
 5     5    1.56  0.0441      0.457
 6     6    1.55  0.0434      0.501
 7     7    1.52  0.0419      0.543
 8     8    1.51  0.0417      0.584
 9     9    1.50  0.0407      0.625
10    10    1.48  0.0399      0.665
# ℹ 45 more rows
…
